{
    "id": "com.mattermost.example-plugin",
    "name": "MM Plugin",
    "description": "A sample plugin",
    "server": {
        "executable": "plugin"
    },
    "homepage_url": "",
    "support_url": "",
    "icon_path": "",
    "version": "0.1.0"
}